{
    "key": "group_59359399c1b03",
    "title": "14 Day Challenge Sale Page Content Editor",
    "fields": [
        {
            "key": "field_593593ae691bc",
            "label": "Intro",
            "name": "",
            "type": "tab",
            "instructions": "",
            "required": 0,
            "conditional_logic": 0,
            "wrapper": {
                "width": "",
                "class": "",
                "id": ""
            },
            "placement": "top",
            "endpoint": 0
        },
        {
            "key": "field_593593bd691bd",
            "label": "Intro Text",
            "name": "intro_text",
            "type": "wysiwyg",
            "instructions": "Enter some intro text and images here.",
            "required": 0,
            "conditional_logic": 0,
            "wrapper": {
                "width": "",
                "class": "",
                "id": ""
            },
            "default_value": "",
            "tabs": "all",
            "toolbar": "full",
            "media_upload": 1,
            "delay": 0
        },
        {
            "key": "field_593593ea691be",
            "label": "Opt In Form Text",
            "name": "opt_in_form_text",
            "type": "wysiwyg",
            "instructions": "Enter some header text that will appear above the form here.",
            "required": 0,
            "conditional_logic": 0,
            "wrapper": {
                "width": "",
                "class": "",
                "id": ""
            },
            "default_value": "",
            "tabs": "all",
            "toolbar": "full",
            "media_upload": 1,
            "delay": 0
        },
        {
            "key": "field_59359428691bf",
            "label": "Opt In Form Code",
            "name": "opt_in_form_code",
            "type": "acf_code_field",
            "instructions": "Copy and paste your form code here.",
            "required": 0,
            "conditional_logic": 0,
            "wrapper": {
                "width": "",
                "class": "",
                "id": ""
            },
            "default_value": "",
            "placeholder": "",
            "mode": "htmlmixed",
            "theme": "monokai"
        },
        {
            "key": "field_5935962b407a9",
            "label": "Opt In Submit Button Label",
            "name": "opt_in_submit_button_label",
            "type": "text",
            "instructions": "Customize the button label here.",
            "required": 0,
            "conditional_logic": 0,
            "wrapper": {
                "width": "",
                "class": "",
                "id": ""
            },
            "default_value": "",
            "placeholder": "",
            "prepend": "",
            "append": "",
            "maxlength": ""
        },
        {
            "key": "field_59359444691c0",
            "label": "Hey Gorgeous Section",
            "name": "",
            "type": "tab",
            "instructions": "",
            "required": 0,
            "conditional_logic": 0,
            "wrapper": {
                "width": "",
                "class": "",
                "id": ""
            },
            "placement": "top",
            "endpoint": 0
        },
        {
            "key": "field_5935945d691c1",
            "label": "Hey Gorgeous Text",
            "name": "hey_gorgeous_text",
            "type": "wysiwyg",
            "instructions": "Enter test for this section here.",
            "required": 0,
            "conditional_logic": 0,
            "wrapper": {
                "width": "",
                "class": "",
                "id": ""
            },
            "default_value": "",
            "tabs": "all",
            "toolbar": "full",
            "media_upload": 1,
            "delay": 0
        },
        {
            "key": "field_59359475691c2",
            "label": "How It Works Section",
            "name": "",
            "type": "tab",
            "instructions": "",
            "required": 0,
            "conditional_logic": 0,
            "wrapper": {
                "width": "",
                "class": "",
                "id": ""
            },
            "placement": "top",
            "endpoint": 0
        },
        {
            "key": "field_59359a2ec895c",
            "label": "How It Works Header Text",
            "name": "how_it_works_header_text",
            "type": "text",
            "instructions": "Enter the header text for this section here.",
            "required": 0,
            "conditional_logic": 0,
            "wrapper": {
                "width": "",
                "class": "",
                "id": ""
            },
            "default_value": "",
            "placeholder": "",
            "prepend": "",
            "append": "",
            "maxlength": ""
        },
        {
            "key": "field_593594a3691c3",
            "label": "How It Works Image",
            "name": "how_it_works_image",
            "type": "image",
            "instructions": "Upload an image for this section here.",
            "required": 0,
            "conditional_logic": 0,
            "wrapper": {
                "width": "",
                "class": "",
                "id": ""
            },
            "return_format": "array",
            "preview_size": "thumbnail",
            "library": "all",
            "min_width": "",
            "min_height": "",
            "min_size": "",
            "max_width": "",
            "max_height": "",
            "max_size": "",
            "mime_types": ""
        },
        {
            "key": "field_593594ce691c4",
            "label": "Callouts Left",
            "name": "callouts_left",
            "type": "wysiwyg",
            "instructions": "Enter the text for the callout for the left here.",
            "required": 0,
            "conditional_logic": 0,
            "wrapper": {
                "width": "",
                "class": "",
                "id": ""
            },
            "default_value": "",
            "tabs": "all",
            "toolbar": "full",
            "media_upload": 1,
            "delay": 0
        },
        {
            "key": "field_593594f3691c5",
            "label": "Callouts Right",
            "name": "callouts_right",
            "type": "wysiwyg",
            "instructions": "Enter the text for the callout for the right here.",
            "required": 0,
            "conditional_logic": 0,
            "wrapper": {
                "width": "",
                "class": "",
                "id": ""
            },
            "default_value": "",
            "tabs": "all",
            "toolbar": "full",
            "media_upload": 1,
            "delay": 0
        },
        {
            "key": "field_59359506691c6",
            "label": "Join Footer Section",
            "name": "",
            "type": "tab",
            "instructions": "",
            "required": 0,
            "conditional_logic": 0,
            "wrapper": {
                "width": "",
                "class": "",
                "id": ""
            },
            "placement": "top",
            "endpoint": 0
        },
        {
            "key": "field_5935951d691c7",
            "label": "Join Footer Text",
            "name": "join_footer_text",
            "type": "wysiwyg",
            "instructions": "Enter text that will appear above the button here.",
            "required": 0,
            "conditional_logic": 0,
            "wrapper": {
                "width": "",
                "class": "",
                "id": ""
            },
            "default_value": "",
            "tabs": "all",
            "toolbar": "full",
            "media_upload": 1,
            "delay": 0
        },
        {
            "key": "field_5935953f691c8",
            "label": "Button Link",
            "name": "button_link",
            "type": "url",
            "instructions": "Enter the link to the button here.",
            "required": 0,
            "conditional_logic": 0,
            "wrapper": {
                "width": "50",
                "class": "",
                "id": ""
            },
            "default_value": "",
            "placeholder": ""
        },
        {
            "key": "field_5935955a691c9",
            "label": "Button Label",
            "name": "button_label",
            "type": "text",
            "instructions": "Enter the label for the button here.",
            "required": 0,
            "conditional_logic": 0,
            "wrapper": {
                "width": "50",
                "class": "",
                "id": ""
            },
            "default_value": "",
            "placeholder": "",
            "prepend": "",
            "append": "",
            "maxlength": ""
        }
    ],
    "location": [
        [
            {
                "param": "page_template",
                "operator": "==",
                "value": "_template-parts\/template_14_day_challenge_page.php"
            }
        ]
    ],
    "menu_order": 0,
    "position": "normal",
    "style": "default",
    "label_placement": "top",
    "instruction_placement": "label",
    "hide_on_screen": [
        "the_content"
    ],
    "active": 1,
    "description": "",
    "modified": 1496685141
}