{
    "key": "group_591f571a885ea",
    "title": "Thank You",
    "fields": false,
    "location": [
        [
            {
                "param": "page_template",
                "operator": "==",
                "value": "page_thankyou.php"
            }
        ]
    ],
    "menu_order": 0,
    "position": "normal",
    "style": "seamless",
    "label_placement": "top",
    "instruction_placement": "label",
    "hide_on_screen": [],
    "active": 1,
    "description": "",
    "modified": 1495226138
}